<?xml version="1.0" encoding="UTF-8"?>
<session version="1.0">
<refactoring accessors="true" comment="Delete element from project &apos;MyReports&apos;&#x0A;- Original project: &apos;MyReports&apos;&#x0A;- Original element: &apos;rep_instituto2.jrxml&apos;" description="Delete element" element1="rep_instituto2.jrxml" elements="0" flags="589830" id="org.eclipse.jdt.ui.delete" resources="1" stamp="1444070577748" subPackages="false" version="1.0"/>
</session>